<?xml version="1.0" encoding="utf-8"?>
<!-- Generator: Adobe Illustrator 15.1.0, SVG Export Plug-In . SVG Version: 6.00 Build 0)  -->
<!DOCTYPE svg PUBLIC "-//W3C//DTD SVG 1.1//EN" "http://www.w3.org/Graphics/SVG/1.1/DTD/svg11.dtd">
<svg version="1.1" id="Layer_1" xmlns="http://www.w3.org/2000/svg" xmlns:xlink="http://www.w3.org/1999/xlink" x="0px" y="0px"
	 width="581.641px" height="883.878px" viewBox="0 0 581.641 883.878" enable-background="new 0 0 581.641 883.878"
	 xml:space="preserve">
<path fill-rule="evenodd" clip-rule="evenodd" fill="none" stroke="#BFBA72" stroke-width="6" stroke-miterlimit="10" d="
	M482.904,2.026L366.326,129.31c0,0-28.261,35.356-57.7,7.071c-29.438-28.285-97.736-94.897-97.736-94.897
	s-24.729-32.974-51.812-6.673C131.993,61.11,31.509,158.853,19.733,170.628c-11.775,11.776-29.046,31.403-3.532,56.134
	c25.513,24.729,149.166,134.172,149.166,134.172s21.98,26.301,53.774-4.317s126.862-123.524,126.862-123.524
	c7.768-7.768,26.749-31.259,58.114,0.11s138.606,136.608,149.31,146.521s41.249,31.302,14.543,59.513
	C541.266,467.446,408.946,588.631,401.8,595.401s-27.082,36.11-62.063,1.129c-34.98-34.982-101.604-102.37-101.604-102.37
	c-33.724-38.475-58.193-17.539-84.532,8.069c-26.34,25.608-108.788,106.542-122.324,119.712
	c-13.535,13.17-34.752,32.926-10.242,56.705c24.51,23.779,152.548,154.188,152.548,154.188c8.955,7.58,27.119,30.269,55.365,1.326
	c28.245-28.943,80.998-80.633,91.932-91.063c14.867-14.182,42.966-13.775,64.781,7.56c23.028,22.521,151.6,130.927,151.6,130.927"/>
</svg>
