<?xml version="1.0" encoding="utf-8"?>
<!-- Generator: Adobe Illustrator 15.1.0, SVG Export Plug-In . SVG Version: 6.00 Build 0)  -->
<!DOCTYPE svg PUBLIC "-//W3C//DTD SVG 1.1//EN" "http://www.w3.org/Graphics/SVG/1.1/DTD/svg11.dtd">
<svg version="1.1" id="Layer_1" xmlns="http://www.w3.org/2000/svg" xmlns:xlink="http://www.w3.org/1999/xlink" x="0px" y="0px"
	 width="2px" height="61.012px" viewBox="0 0 2 61.012" enable-background="new 0 0 2 61.012" xml:space="preserve">
<g>
	<g>
		<path fill-rule="evenodd" clip-rule="evenodd" fill="#247F9E" d="M0,0v5h2V0H0z M0,13h2V8H0V13z M0,21.012h2v-5H0V21.012z
			 M0,29.012h2v-5H0V29.012z M0,37.012h2v-5H0V37.012z M0,45.012h2v-5H0V45.012z M0,53.012h2v-5H0V53.012z M0,61.012h2v-5H0V61.012z
			"/>
	</g>
</g>
</svg>
