<?xml version="1.0" encoding="utf-8"?>
<!-- Generator: Adobe Illustrator 16.0.3, SVG Export Plug-In . SVG Version: 6.00 Build 0)  -->
<!DOCTYPE svg PUBLIC "-//W3C//DTD SVG 1.1//EN" "http://www.w3.org/Graphics/SVG/1.1/DTD/svg11.dtd">
<svg version="1.1" id="Layer_1" xmlns="http://www.w3.org/2000/svg" xmlns:xlink="http://www.w3.org/1999/xlink" x="0px" y="0px"
	 width="92.33px" height="61.639px" viewBox="0 0 92.33 61.639" enable-background="new 0 0 92.33 61.639" xml:space="preserve">
<path fill="#EBB020" d="M90.298,15.882l-2.8-0.491c-0.287-0.944-0.658-1.856-1.112-2.726l1.664-2.302
	c0.706-0.981,0.604-2.325-0.25-3.181l-2.473-2.499c-0.465-0.47-1.081-0.733-1.74-0.736c-0.517-0.002-1.01,0.153-1.429,0.452
	l-2.328,1.64c-0.898-0.48-1.839-0.877-2.813-1.175l-0.453-2.772c-0.194-1.194-1.215-2.067-2.425-2.073L70.628,0
	c-1.21-0.007-2.24,0.856-2.447,2.047l-0.499,2.835c-0.936,0.287-1.847,0.667-2.717,1.129L62.68,4.347
	c-0.416-0.302-0.915-0.464-1.432-0.466c-0.659-0.003-1.286,0.251-1.747,0.716l-2.507,2.473c-0.855,0.847-0.979,2.189-0.284,3.178
	l1.656,2.353c-0.463,0.874-0.835,1.782-1.124,2.722l-2.772,0.454c-1.194,0.193-2.067,1.215-2.073,2.425l-0.019,3.513
	c-0.006,1.208,0.856,2.24,2.048,2.447l2.833,0.499c0.287,0.936,0.666,1.847,1.128,2.718l-1.655,2.277
	c-0.706,0.981-0.604,2.324,0.25,3.181l2.473,2.499c0.465,0.47,1.081,0.731,1.74,0.735c0.517,0.002,1.01-0.153,1.429-0.451
	l2.353-1.657c0.84,0.446,1.723,0.81,2.63,1.098l0.453,2.806c0.194,1.194,1.215,2.067,2.425,2.074l3.52,0.019
	c1.21,0.006,2.24-0.856,2.447-2.049l0.49-2.8c0.944-0.287,1.855-0.658,2.726-1.112l2.302,1.665c0.416,0.302,0.915,0.463,1.433,0.466
	l0,0c0.659,0.003,1.277-0.252,1.747-0.717l2.499-2.474c0.855-0.846,0.979-2.189,0.284-3.178l-1.64-2.327
	c0.463-0.874,0.852-1.781,1.141-2.714l2.805-0.453c1.194-0.194,2.067-1.215,2.073-2.425l0.019-3.513
	C92.353,17.118,91.49,16.087,90.298,15.882z M90.075,21.829c0,0.109-0.076,0.2-0.185,0.216l-3.507,0.565
	c-0.442,0.073-0.794,0.396-0.905,0.821c-0.323,1.225-0.813,2.399-1.47,3.488c-0.228,0.383-0.213,0.859,0.043,1.227l2.045,2.915
	c0.058,0.084,0.049,0.21-0.026,0.284l-2.499,2.473c-0.059,0.058-0.117,0.066-0.159,0.066c-0.05,0-0.092-0.018-0.125-0.043
	l-2.884-2.076c-0.357-0.26-0.841-0.28-1.226-0.057c-1.096,0.646-2.275,1.124-3.502,1.434c-0.435,0.106-0.762,0.463-0.831,0.897
	l-0.61,3.501c-0.018,0.108-0.109,0.183-0.218,0.183l-3.512-0.018c-0.108,0-0.2-0.076-0.216-0.185l-0.565-3.508
	c-0.073-0.442-0.396-0.794-0.821-0.905c-1.191-0.315-2.34-0.797-3.413-1.42c-0.175-0.101-0.375-0.153-0.566-0.154
	c-0.225,0-0.459,0.065-0.652,0.206l-2.931,2.062c-0.042,0.025-0.083,0.041-0.125,0.041c-0.033,0-0.1-0.008-0.158-0.067l-2.473-2.499
	c-0.074-0.076-0.082-0.193-0.023-0.284l2.067-2.868c0.261-0.366,0.28-0.85,0.057-1.234c-0.645-1.089-1.139-2.268-1.45-3.496
	c-0.115-0.425-0.463-0.753-0.897-0.831l-3.525-0.619c-0.109-0.018-0.183-0.11-0.183-0.218l0.019-3.513
	c0-0.108,0.076-0.2,0.185-0.215l3.482-0.566c0.442-0.073,0.803-0.396,0.914-0.83c0.315-1.225,0.796-2.407,1.445-3.497
	c0.227-0.382,0.205-0.858-0.052-1.218L58.56,8.956c-0.058-0.085-0.049-0.209,0.027-0.284l2.499-2.473
	c0.059-0.058,0.117-0.066,0.159-0.066c0.05,0,0.091,0.018,0.125,0.042l2.867,2.068c0.366,0.259,0.85,0.279,1.234,0.056
	c1.088-0.645,2.267-1.139,3.495-1.45c0.426-0.115,0.753-0.463,0.831-0.897l0.619-3.526c0.018-0.108,0.109-0.183,0.218-0.182
	l3.512,0.019c0.108,0,0.2,0.076,0.216,0.185l0.565,3.482c0.073,0.443,0.396,0.803,0.83,0.914c1.258,0.324,2.457,0.822,3.571,1.487
	c0.382,0.228,0.858,0.213,1.227-0.043l2.889-2.055c0.042-0.024,0.084-0.041,0.125-0.041c0.033,0,0.1,0.008,0.158,0.067l2.473,2.5
	c0.075,0.075,0.083,0.193,0.023,0.283l-2.076,2.885c-0.26,0.357-0.28,0.841-0.056,1.226c0.645,1.097,1.122,2.276,1.433,3.504
	c0.106,0.434,0.463,0.761,0.896,0.83l3.5,0.612c0.108,0.017,0.183,0.109,0.183,0.218l-0.019,3.512H90.075z"/>
<path fill="#EBB020" d="M72.403,11.356c-4.754-0.025-8.637,3.818-8.662,8.574c-0.025,4.755,3.816,8.638,8.571,8.664
	c4.755,0.024,8.638-3.817,8.663-8.574C81,15.265,77.158,11.381,72.403,11.356z M72.325,26.341c-3.512-0.018-6.35-2.886-6.332-6.399
	c0.019-3.513,2.887-6.35,6.398-6.332s6.35,2.887,6.331,6.4C78.704,23.521,75.836,26.36,72.325,26.341z"/>
<path fill="#EBB020" d="M78.709,53.24l-31.5-2.846L33.359,39.929c0,0-0.001,0-0.001-0.001c-0.448-0.339-0.966-1.516-0.129-2.353
	c0.793-0.908,1.885-0.535,2.063-0.535c0.177,0,1.83,1.033,2.119,1.252c0,0,0.001,0,0.002,0v0l9.144,6.912c0,0,0,0,0.001,0
	c0,0,0,0,0.001,0.001c0.026,0.02,0.055,0.037,0.082,0.057c0.04,0.028,0.079,0.057,0.121,0.081c1.342,0.938,3.052,1.413,4.767,1.413
	c1.8,0,3.603-0.518,4.975-1.553c1.401-1.776,1.796-4.604-0.943-6.675L31.398,20.208c-0.5-0.378-1.177-0.591-1.884-0.591
	L2.663,19.608C1.192,19.608,0,20.014,0,21.125c0,1.112,1.192,1.468,2.663,1.468l26.877-0.132l23.857,17.905
	c0.665,0.502,0.86,2.522-0.025,3.202c-0.674,0.55-2.852,0.588-3.517,0.087c-0.001-0.001-0.002-0.002-0.003-0.003l-9.918-6.956
	c0,0,0-0.001-0.001-0.001c-0.001-0.001-0.001-0.001-0.002-0.001v0c-0.001,0-0.003-0.001-0.004-0.002
	c-1.22-0.922-2.626-2.336-4.354-2.336c-1.729,0-2.323,0.166-3.549,1.091c-2.453,1.857-2.509,4.85-0.182,6.766
	c0.016,0.014,0.034,0.027,0.05,0.041c0.045,0.036,0.084,0.075,0.131,0.11c0.001,0,0.001,0.001,0.002,0.002h0l12.73,9.622
	c0.41,0.31,0.943,0.511,1.518,0.571l33.232,3.321c0.598,0.066,1.728,0.368,1.728,1.036c0,0.363,0.13,0.79-0.109,1.088
	c-0.146,0.267-0.667,0.627-1.151,0.627L41.7,58.623L13.426,37.204c-0.5-0.377-1.177-0.589-1.883-0.589H2.663
	C1.192,36.615,0,36.889,0,38.001c0,1.112,1.192,1.622,2.663,1.622h9.017l28.24,21.426c0.499,0.378,1.177,0.59,1.883,0.59h36.585
	c1.782,0,2.965-0.217,4.225-1.169c1.258-0.953,1.521-1.988,1.519-3.332C84.132,54.597,82.428,53.656,78.709,53.24z"/>
</svg>
